{
  "closed": false,
  "remembered": {
    "Patient": {
      "0": {
        "diffuse": "#26ffe3",
        "fresnelColor": "#07fcff",
        "fresnelPow": 1.2,
        "fresnelCoeff": 1.0,
        "seeThrough": true,
        "thickness": 0.02,
        "backgroundHex": "#e8d5b7",
        "fillHex": "#0e2430",
        "strokeHex": "#fc3a51",
        "dashEnabled": false,
        "dashAnimate": false,
        "dashRepeats": 1,
        "dashLength": 0.8,
        "dashOverlap": true,
        "noiseA": false,
        "noiseB": false,
        "insideAltColor": true,
        "squeeze": true,
        "squeezeMin": 0,
        "squeezeMax": 1,
        "dualStroke": true,
        "secondThickness": 0.05,
        "name": "Patient",
        "edgeRemoval": true
      }
    }
  },
  "folders": {
    "Shader": {
      "preset": "Default",
      "closed": false,
      "folders": {
        "Dash": {
          "preset": "Default",
          "closed": true,
          "folders": {}
        },
        "Effects": {
          "preset": "Default",
          "closed": true,
          "folders": {}
        },
        "Geometry": {
          "preset": "Default",
          "closed": false,
          "folders": {}
        }
      }
    }
  }
}
