{
  "ige": {
    "type2no": {
      "type": "IgE level reduction",
      "count": 68,
      "unit": "%",
      "upTo": false,
      "info": {
        "default": {
          "title": "",
          "description": "from baseline at Week 52 (QUEST) with DUPIXENT 200 mg + SOC (n=631) vs 0% with placebo + SOC (n=313)<sup>12</sup>"
        },
        "important": {
          "title": "IgE",
          "description": "Reducing IgE, a biomarker of type 2 inflammation, means patients suffer less from allergic symptoms that aggravate their impaired lung function and threaten exacerbations."
        }
      },
      "graph": "lge-summary-graph.png"
    },
    "type2yes": {
      "type": "IgE level reduction",
      "count": 71,
      "unit": "%",
      "upTo": false,
      "info": {
        "default": {
          "title": "",
          "description": "from baseline at Week 52 (QUEST) with DUPIXENT 300 mg + SOC (n=632) vs 0% with placebo + SOC (n=321)<sup>12</sup>"
        },
        "important": {
          "title": "IgE",
          "description": "Reducing IgE, a biomarker of type 2 inflammation, means patients suffer less from allergic symptoms that aggravate their impaired lung function and threaten exacerbations."
        }
      },
      "graph": "lge-summary-graph.png"
    }
  },
  "acq": {
    "type2no": {
      "type": "ACQ-5 responder rate ",
      "count": 75,
      "unit": "%",
      "upTo": true,
      "info": {
        "default": {
          "title": "",
          "description": "in patients with EOS ≥300 cells/μL at Week 52 (QUEST) with DUPIXENT 200 mg + SOC (n=239) vs 67% with placebo + SOC (n=124)<sup>8</sup>"
        },
        "important": {
          "title": "ACQ-5",
          "description": "The Asthma Control Questionnaire, 5-item version, is a patient-reported measure of asthma control that tracks sleep, activity limitation, and breathing, which impact quality of life."
        }
      },
      "graph": false
    },
    "type2yes": {
      "type": "ACQ-5 responder rate",
      "count": 71,
      "unit": "%",
      "upTo": true,
      "info": {
        "default": {
          "title": "",
          "description": "in patients with EOS ≥300 cells/μL at Week 52 (QUEST) with DUPIXENT 300 mg + SOC (n=248) vs 64% with placebo + SOC (n=129)<sup>8</sup>"
        },
        "important": {
          "title": "ACQ-5",
          "description": "The Asthma Control Questionnaire, 5-item version, is a patient-reported measure of asthma control that tracks sleep, activity limitation, and breathing, which impact quality of life."
        }
      },
      "graph": false
    }
  },
  "exacerbationsFeno": {
    "type2no": {
      "type": "exacerbation reduction ",
      "count": 69,
      "unit": "%",
      "upTo": false,
      "info": {
        "default": {
          "title": "",
          "description": "in patients with elevated baseline FeNO in adjusted annualized rate of severe exacerbations through Week 52 (QUEST) with DUPIXENT 200 mg + SOC (n=119) vs placebo + SOC (0.33 vs 1.057) (n=71)<sup>8</sup>"
        },
        "important": {
          "title": "Exacerbations",
          "description": "Reducing the rate of severe exacerbations means patients avoid hospitalization or emergency department visits, require less systemic corticosteroids, and reduce their risk of death."
        }
      },
      "graph": false
    },
    "type2yes":  {
      "type": "exacerbation reduction ",
      "count": 69,
      "unit": "%",
      "upTo": false,
      "info": {
        "default": {
          "title": "",
          "description": "in patients with elevated baseline FeNO in adjusted annualized rate of severe exacerbations through Week 52 (QUEST) with DUPIXENT 300 mg + SOC (n=124) vs placebo + SOC (0.39 vs 1.27) (n=75)<sup>8</sup>"
        },
        "important": {
          "title": "Exacerbations",
          "description": "Reducing the rate of severe exacerbations means patients avoid hospitalization or emergency department visits, require less systemic corticosteroids, and reduce their risk of death."
        }
      },
      "graph": false
    }
  },
  "exacerbationsEos300": {
    "type2no": {
      "type": "exacerbation reduction ",
      "count": 71,
      "unit": "%",
      "upTo": false,
      "info": {
        "default": {
          "title": "",
          "description": "in patients with EOS ≥300 cells/μL in adjusted annualized rate of severe exacerbations through Week 24 (DRI) with DUPIXENT 200 mg + SOC (n=65) vs placebo + SOC (0.30 vs 1.04) (n=68)<sup>8</sup>"
        },
        "important": {
          "title": "Exacerbations",
          "description": "Reducing the rate of severe exacerbations means patients avoid hospitalization or emergency department visits, require less systemic corticosteroids, and reduce their risk of death."
        }
      },
      "graph": false
    },
    "type2yes":  {
      "type": "exacerbation reduction ",
      "count": 77,
      "unit": "%",
      "upTo": false,
      "info": {
        "default": {
          "title": "",
          "description":"In annualized rate of severe exacerbations in patients with baseline blood eosinophil counts ≥ 300 cells/µL & had ≥ 3 exacerbations last year with DUPIXENT 300 mg + SOC (n=105) vs placebo + SOC (n=68) (Ci, 0.339-0.717) P<0.0001)(Quest Study)<sup>2</sup>"
        },
        "important": {
          "title": "Exacerbations",
          "description": "Reducing the rate of severe exacerbations means patients avoid hospitalization or emergency department visits, require less systemic corticosteroids, and reduce their risk of death."
        }
      },
      "graph": false
    }
  },
  "exacerbationsEos150": {
    "type2no": {
      "type": "exacerbation reduction ",
      "count": 72,
      "unit": "%",
      "upTo": false,
      "info": {
        "default": {
          "title": "",
          "description": "in annualized severe exacerbations at Week 24 (DRI) with DUPIXENT 200 mg + SOC (n=120) vs placebo + SOC (0.29 vs 1.05) (n=127)<sup>8</sup>"
        },
        "important": {
          "title": "Exacerbations",
          "description": "Reducing the rate of severe exacerbations means patients avoid hospitalization or emergency department visits, require less systemic corticosteroids, and reduce their risk of death."
        }
      },
      "graph": false
    },
    "type2yes":  {
      "type": "exacerbation reduction ",
      "count": 73,
      "unit": "%",
      "upTo": false,
      "info": {
        "default": {
          "title": "",
          "description": "in annualized severe exacerbations at Week 24 (DRI) with DUPIXENT 300 mg + SOC (n=129) vs placebo + SOC (0.28 vs 1.05) (n=127)<sup>8</sup>"
        },
        "important": {
          "title": "Exacerbations",
          "description": "Reducing the rate of severe exacerbations means patients avoid hospitalization or emergency department visits, require less systemic corticosteroids, and reduce their risk of death."
        }
      },
      "graph": false
    }
  },
  "lungFeno": {
    "type2no": {
      "type": "improvement in lung function",
      "count": 490,
      "unit": "mL",
      "upTo": true,
      "info": {
        "default": {
          "title": "",
          "description": "in patients with FeNO ≥25 ppb at Week 52 (QUEST) with DUPIXENT 200 mg + SOC (n=288) vs 180 mL with placebo + SOC (n=157)<sup>8</sup>"
        },
        "important": {
          "title": "FEV<small>1</small>",
          "description": "Improving lung function reduces the risk for severe exacerbations and death."
        }
      },
      "graph": false
    },
    "type2yes":  {
      "type": "improvement in lung function",
      "count": 450,
      "unit": "mL",
      "upTo": true,
      "info": {
        "default": {
          "title": "",
          "description": "in patients with FeNO ≥25 ppb at Week 52 (QUEST) with DUPIXENT 200 mg + SOC (n=288) vs 180 mL with placebo + SOC (n=157)<sup>8</sup>"
        },
        "important": {
          "title": "FEV<small>1</small>",
          "description": "Improving lung function reduces the risk for severe exacerbations and death."
        }
      },
      "graph": false
    }
  },
  "lungEos300": {
    "type2no": {
      "type": "improvement in lung function",
      "count": 430,
      "unit": "mL",
      "upTo": true,
      "info": {
        "default": {
          "title": "",
          "description": "in patients with EOS ≥300 cells/μL at Week 12 (DRI) with DUPIXENT 200 mg + SOC (n=65) vs 180 mL with placebo + SOC (n=68)<sup>8</sup>"
        },
        "important": {
          "title": "FEV<small>1</small>",
          "description": "Improving lung function reduces the risk for severe exacerbations and death."
        }
      },
      "graph": false
    },
    "type2yes":  {
      "type": "improvement in lung function",
      "count": 470,
      "unit": "mL",
      "upTo": true,
      "info": {
        "default": {
          "title": "",
          "description": "in patients with EOS ≥300 cells/μL at Week 12 (QUEST) with DUPIXENT 300 mg + SOC (n=277) vs 220 mL with placebo + SOC (n=142)<sup>8</sup>"
        },
        "important": {
          "title": "FEV<small>1</small>",
          "description": "Improving lung function reduces the risk for severe exacerbations and death."
        }
      },
      "graph": false
    }
  },
  "lungEos150": {
    "type2no": {
      "type": "improvement in lung function",
      "count": 360,
      "unit": "mL",
      "upTo": true,
      "info": {
        "default": {
          "title": "",
          "description": "from baseline at Week 12 (QUEST) with DUPIXENT 200 mg + SOC (n=437) vs 180 mL with placebo + SOC (n=232)<sup>8</sup>"
        },
        "important": {
          "title": "FEV<small>1</small>",
          "description": "Improving lung function reduces the risk for severe exacerbations and death."
        }
      },
      "graph": false
    },
    "type2yes":  {
      "type": "improvement in lung function",
      "count": 370,
      "unit": "mL",
      "upTo": true,
      "info": {
        "default": {
          "title": "",
          "description": "from baseline at Week 12 (QUEST) with DUPIXENT 300 mg + SOC (n=452) vs 220 mL with placebo + SOC (n=237)<sup>8</sup>"
        },
        "important": {
          "title": "FEV<small>1</small>",
          "description": "Improving lung function reduces the risk for severe exacerbations and death."
        }
      },
      "graph": false
    }
  },
  "ocs": [
    {
      "type": "reduced or eliminated OCS dose",
      "count": 86,
      "unit": "%",
      "upTo": false,
      "info": {
        "default": {
          "title": "",
          "description": "by Week 24 (VENTURE) with DUPIXENT 300 mg + SOC (n=103) vs 68% with placebo + SOC (n=107)<sup>13</sup>"
        },
        "important": {
          "title": "OCS",
          "description": "Less oral corticosteroid use means reduced exposure to short- and long-term adverse effects"
        }
      },
      "graph": false
    },
    {
      "type": "improvement in lung function",
      "count": 220,
      "unit": "mL",
      "upTo": true,
      "info": {
        "default": {
          "title": "",
          "description": "at Week 24 (VENTURE) in steroid-dependent patients with DUPIXENT 300 mg + SOC (n=103) vs 10 mL placebo + SOC (n=107)<sup>8,13</sup>"
        },
        "important": {
          "title": "OCS",
          "description": "Less oral corticosteroid use means reduced exposure to short- and long-term adverse effects"
        }
      },
      "graph": "ocs-dependent-summary-graph.png"
    },
    {
      "type": "reduction in annualized rate of severe exacerbations",
      "count": 59,
      "unit": "%",
      "upTo": false,
      "info": {
        "default": {
          "title": "",
          "description": "through Week 24 (VENTURE) in steroid-dependent patients with DUPIXENT 300 mg + SOC (n=103) vs placebo + SOC (0.65 vs 1.60) (n=107)<sup>8</sup>"
        },
        "important": {
          "title": "OCS",
          "description": "Less oral corticosteroid use means reduced exposure to short- and long-term adverse effects"
        }
      },
      "graph": false,
      "width": true
    }
  ]
}
